…
-   **`first()`, `last()`, `nth()`**
    Extract the first, last or nth value from a vector.
    It doesn't collapse the *n* rows for each group into one row, but compute within them.

``` r
mtcars[, 1:5] %>%
  group_by(cyl) %>%
  mutate(qsec.diff = disp - first(disp))
#> # A tibble: 32 x 6
#> # Groups:   cyl [3]
#>      mpg   cyl  disp    hp  drat qsec.diff
#>    <dbl> <dbl> <dbl> <dbl> <dbl>     <dbl>
#>  1  21       6  160    110  3.9       0   
#>  2  21       6  160    110  3.9       0   
#>  3  22.8     4  108     93  3.85      0   
#>  4  21.4     6  258    110  3.08     98   
#>  5  18.7     8  360    175  3.15      0   
#>  6  18.1     6  225    105  2.76     65   
#>  7  14.3     8  360    245  3.21      0   
#>  8  24.4     4  147.    62  3.69     38.7 
#>  9  22.8     4  141.    95  3.92     32.8 
#> 10  19.2     6  168.   123  3.92      7.60
#> # ... with 22 more rows
```
…
